1,2016,2,1,3,0,56,-1,-1,0,0,19400,6,6,4
2,2016,4,0,3,0,17,-1,-1,0,0,0,5,5,3
2,2016,5,0,3,0,20,-1,-1,0,0,0,5,5,3
3,2016,1,1,1,3,35,30,40311,15000,15000,33000,3,2,0
3,2016,2,1,1,3,38,0,40311,18000,18000,33000,3,2,0
3,2016,3,0,4,0,1,-1,-1,0,0,33000,3,2,5
4,2016,1,0,1,3,69,15,05001,5000,-9,0,1,1,0
5,2016,1,0,1,3,36,46,43331,13000,13000,13000,1,1,0
6,2016,1,0,3,0,63,-1,-1,0,6500,11300,2,2,1
6,2016,2,0,3,0,91,-1,-1,0,4800,11300,2,2,1
7,2016,1,1,3,0,66,-1,-1,0,18000,37800,3,3,1
7,2016,2,1,3,0,70,-1,-1,0,4800,37800,3,1
7,2016,3,0,1,3,36,30,10313,15000,15000,37800,3,3,0
8,2016,1,1,3,0,70,-1,-1,0,-9,0,1,1,1
9,2016,1,0,1,3,43,70,34323,21000,21000,27000,2,2,0
9,2016,2,0,1,3,42,45,55314,6000,6000,27000,2,2,0
10,2016,1,1,1,3,36,40,81201,24000,24000,0,5,2,0
11,2016,4,0,1,3,22,24,20313,5000,5000,22500,5,5,0
11,2016,5,0,1,3,25,16,41312,3500,3500,22500,5,5,0
11,2016,6,0,3,0,17,-1,-1,0,0,22500,5,5,3
12,2016,3,0,4,0,1,-1,-1,0,0,0,3,2,5
13,2016,1,1,3,0,73,-1,-1,0,-9,0,3,3,1
13,2016,2,1,1,3,47,999,99999,-9,-9,0,3,3,0
13,2016,3,1,1,3,41,45,11331,17000,17000,0,3,3,0
14,2016,1,0,1,3,66,7,55314,1200,14880,14880,1,1,0
15,2016,1,0,1,3,40,60,55314,6000,6000,18000,2,2,0
16,2016,1,1,1,2,36,66,40111,15000,15000,28000,2,2,0
16,2016,2,1,1,3,28,40,20313,13000,13000,28000,2,2,0
17,2016,1,1,1,3,44,50,10311,24000,24000,62800,3,3,0
17,2016,2,1,1,3,44,40,72331,34500,38800,62800,3,3,0
17,2016,3,0,3,0,13,-1,-1,0,0,62800,3,3,3
18,2016,1,0,1,3,62,56,30314,8000,8000,0,6,6,0
18,2016,2,0,1,3,60,24,55314,-9,-9,0,6,6,0
